…
### Determine whether an ASV is unique to genomes they’re found in

Instead of looking at the number of ASVs per genome, we want to see the
number of genomes per ASV.

    fl %>%
        group_by(asv) %>%
        summarize(n_genomes = n()) %>%
        count(n_genomes) %>%
        mutate(fraction = n/sum(n))

    ## `summarise()` ungrouping output (override with `.groups` argument)

    ## # A tibble: 98 x 3
    ##    n_genomes     n fraction
    ##        <int> <int>    <dbl>
    ##  1         1 19246  0.824  
    ##  2         2  2037  0.0872 
    ##  3         3   675  0.0289 
    ##  4         4   354  0.0152 
    ##  5         5   234  0.0100 
    ##  6         6   116  0.00497
    ##  7         7    99  0.00424
    ##  8         8    71  0.00304
    ##  9         9    73  0.00312
    ## 10        10    44  0.00188
    ## # … with 88 more rows
…
The number of ASVs per copy of *rrn* operon is lower than for full
length sequences. We find 1.5 ASV per 10 copies of the *rrn* operon.

Next, let’s look at the specificity of an ASV for a genome

    v_four %>%
        group_by(asv) %>%
        summarize(n_genomes = n()) %>%
        count(n_genomes) %>%
        mutate(fraction = n/sum(n))

    ## `summarise()` ungrouping output (override with `.groups` argument)

    ## # A tibble: 80 x 3
    ##    n_genomes     n fraction
    ##        <int> <int>    <dbl>
    ##  1         1  4592  0.759  
    ##  2         2   633  0.105  
    ##  3         3   260  0.0430 
    ##  4         4   120  0.0198 
    ##  5         5    80  0.0132 
    ##  6         6    49  0.00810
    ##  7         7    40  0.00661
    ##  8         8    31  0.00512
    ##  9         9    25  0.00413
    ## 10        10    22  0.00364
    ## # … with 70 more rows
…
